{
  "project_info": {
    "project_number": "419309407479",
    "firebase_url": "https://fundappversion1.firebaseio.com",
    "project_id": "fundappversion1",
    "storage_bucket": "fundappversion1.appspot.com"
  },
  "client": [
    {
      "client_info": {
        "mobilesdk_app_id": "1:419309407479:android:80a772934ea14e3fe517f2",
        "android_client_info": {
          "package_name": "com.example.fund_app"
        }
      },
      "oauth_client": [
        {
          "client_id": "419309407479-0cqslvar66oece7t0o0rhisg0qm46d4l.apps.googleusercontent.com",
          "client_type": 3
        }
      ],
      "api_key": [
        {
          "current_key": "AIzaSyCIRgPTReb5uY_nQHM7CsV9fJvL3DEuC50"
        }
      ],
      "services": {
        "appinvite_service": {
          "other_platform_oauth_client": [
            {
              "client_id": "419309407479-0cqslvar66oece7t0o0rhisg0qm46d4l.apps.googleusercontent.com",
              "client_type": 3
            }
          ]
        }
      }
    }
  ],
  "configuration_version": "1"
}